{
  "data": {
    "filter": {
      "KeywordFilter": {
        "keywords": [],
        "anyKeyword": false
      },
      "AgencyFilter": [],
      "naicsFilter": [],
      "setAsideType": [],
      "ceilingAmmt": {},
      "contractType": [],
      "opportunityRelevance": []
    },
    "opportunities": [
      {
        "opportunity": {
          "gpKey": "{12345}",
          "name": "Project Title Page 1",
          "naicsCode": "333999",
          "solicitationNumber": "SPRHA4-18-R-8001",
          "noticeType": "Solicitation",
          "synopsis": "McAlester Army Ammunition Plant has now issued an Amendment to its Request for Quote for Pnuematic Jolter (See posted solicitation for additional requirements.) FOB Destination - McAlester Army Ammunition Plant, McAlester, OK. This solicitation will be issued via the internet at https//www.fbo.gov and will now close 13 Aug 2018. Questions or offers should be e-mailed directly to susaneva.k.wade.civ@mail.mil. Any changes to the solicitation shall also be posted to this web site and it is the contractor's responsibility to check site daily for any posted changes. All contractors who provide goods/services to the DOD must have a current active registration at System for Award Management (SAM) - https://www.sam.gov.",
          "setAside": "Total Small Business",
          "type": "Combined Synopsis/Solicitation",
          "posted": "/Date(1533652362000)/",
          "closeDate": "/Date(1532923200000)/"
        },
        "agency": {
          "name": "Army Corps of Engineers",
          "imageFilename": "https://www.fbo.gov/utils/view?id=6bd159b079447f4207ba0206d3cc4ed0&inline_disposition=1",
          "acronymn": "USACE",
          "office": "Army Contracting Command",
          "location": "ACC - RI (W44W9M) McAlester Contracting Office",
          "gpKey": "{fef4c518-182f-46ee-9b6c-2f8a8322a1e0}",
          "selected": false
        }
      },
      {
        "opportunity": {
          "gpKey": "{23456}",
          "name": "Project Title Page 1",
          "naicsCode": "333999",
          "solicitationNumber": "SPRHA4-18-R-8001",
          "noticeType": "Solicitation",
          "synopsis": "McAlester Army Ammunition Plant has now issued an Amendment to its Request for Quote for Pnuematic Jolter (See posted solicitation for additional requirements.) FOB Destination - McAlester Army Ammunition Plant, McAlester, OK. This solicitation will be issued via the internet at https//www.fbo.gov and will now close 13 Aug 2018. Questions or offers should be e-mailed directly to susaneva.k.wade.civ@mail.mil. Any changes to the solicitation shall also be posted to this web site and it is the contractor's responsibility to check site daily for any posted changes. All contractors who provide goods/services to the DOD must have a current active registration at System for Award Management (SAM) - https://www.sam.gov.",
          "setAside": "Total Small Business",
          "type": "Combined Synopsis/Solicitation",
          "posted": "/Date(1533652362000)/",
          "closeDate": "/Date(1532923200000)/"
        },
        "agency": {
          "name": "Army Corps of Engineers",
          "imageFilename": "https://www.fbo.gov/utils/view?id=6bd159b079447f4207ba0206d3cc4ed0&inline_disposition=1",
          "acronymn": "USACE",
          "office": "Army Contracting Command",
          "location": "ACC - RI (W44W9M) McAlester Contracting Office",
          "gpKey": "{fef4c518-182f-46ee-9b6c-2f8a8322a1e0}",
          "selected": false
        }
      },
      {
        "opportunity": {
          "gpKey": "{34567}",
          "name": "Project Title Page 1",
          "naicsCode": "333999",
          "solicitationNumber": "SPRHA4-18-R-8001",
          "noticeType": "Solicitation",
          "synopsis": "McAlester Army Ammunition Plant has now issued an Amendment to its Request for Quote for Pnuematic Jolter (See posted solicitation for additional requirements.) FOB Destination - McAlester Army Ammunition Plant, McAlester, OK. This solicitation will be issued via the internet at https//www.fbo.gov and will now close 13 Aug 2018. Questions or offers should be e-mailed directly to susaneva.k.wade.civ@mail.mil. Any changes to the solicitation shall also be posted to this web site and it is the contractor's responsibility to check site daily for any posted changes. All contractors who provide goods/services to the DOD must have a current active registration at System for Award Management (SAM) - https://www.sam.gov.",
          "setAside": "Total Small Business",
          "type": "Combined Synopsis/Solicitation",
          "posted": "/Date(1533652362000)/",
          "closeDate": "/Date(1532923200000)/"
        },
        "agency": {
          "name": "Army Corps of Engineers",
          "imageFilename": "https://www.fbo.gov/utils/view?id=6bd159b079447f4207ba0206d3cc4ed0&inline_disposition=1",
          "acronymn": "USACE",
          "office": "Army Contracting Command",
          "location": "ACC - RI (W44W9M) McAlester Contracting Office",
          "gpKey": "{fef4c518-182f-46ee-9b6c-2f8a8322a1e0}",
          "selected": false
        }
      },
      {
        "opportunity": {
          "gpKey": "{45678}",
          "name": "Project Title Page 1",
          "naicsCode": "333999",
          "solicitationNumber": "SPRHA4-18-R-8001",
          "noticeType": "Solicitation",
          "synopsis": "McAlester Army Ammunition Plant has now issued an Amendment to its Request for Quote for Pnuematic Jolter (See posted solicitation for additional requirements.) FOB Destination - McAlester Army Ammunition Plant, McAlester, OK. This solicitation will be issued via the internet at https//www.fbo.gov and will now close 13 Aug 2018. Questions or offers should be e-mailed directly to susaneva.k.wade.civ@mail.mil. Any changes to the solicitation shall also be posted to this web site and it is the contractor's responsibility to check site daily for any posted changes. All contractors who provide goods/services to the DOD must have a current active registration at System for Award Management (SAM) - https://www.sam.gov.",
          "setAside": "Total Small Business",
          "type": "Combined Synopsis/Solicitation",
          "posted": "/Date(1533652362000)/",
          "closeDate": "/Date(1532923200000)/"
        },
        "agency": {
          "name": "Army Corps of Engineers",
          "imageFilename": "https://www.fbo.gov/utils/view?id=6bd159b079447f4207ba0206d3cc4ed0&inline_disposition=1",
          "acronymn": "USACE",
          "office": "Army Contracting Command",
          "location": "ACC - RI (W44W9M) McAlester Contracting Office",
          "gpKey": "{fef4c518-182f-46ee-9b6c-2f8a8322a1e0}",
          "selected": false
        }
      },
      {
        "opportunity": {
          "gpKey": "{56789}",
          "name": "Project Title Page 1",
          "naicsCode": "333999",
          "solicitationNumber": "SPRHA4-18-R-8001",
          "noticeType": "Solicitation",
          "synopsis": "McAlester Army Ammunition Plant has now issued an Amendment to its Request for Quote for Pnuematic Jolter (See posted solicitation for additional requirements.) FOB Destination - McAlester Army Ammunition Plant, McAlester, OK. This solicitation will be issued via the internet at https//www.fbo.gov and will now close 13 Aug 2018. Questions or offers should be e-mailed directly to susaneva.k.wade.civ@mail.mil. Any changes to the solicitation shall also be posted to this web site and it is the contractor's responsibility to check site daily for any posted changes. All contractors who provide goods/services to the DOD must have a current active registration at System for Award Management (SAM) - https://www.sam.gov.",
          "setAside": "Total Small Business",
          "type": "Combined Synopsis/Solicitation",
          "posted": "/Date(1533652362000)/",
          "closeDate": "/Date(1532923200000)/"
        },
        "agency": {
          "name": "Army Corps of Engineers",
          "imageFilename": "https://www.fbo.gov/utils/view?id=6bd159b079447f4207ba0206d3cc4ed0&inline_disposition=1",
          "acronymn": "USACE",
          "office": "Army Contracting Command",
          "location": "ACC - RI (W44W9M) McAlester Contracting Office",
          "gpKey": "{fef4c518-182f-46ee-9b6c-2f8a8322a1e0}",
          "selected": false
        }
      },
      {
        "opportunity": {
          "gpKey": "{67890}",
          "name": "Project Title Page 1",
          "naicsCode": "333999",
          "solicitationNumber": "SPRHA4-18-R-8001",
          "noticeType": "Solicitation",
          "synopsis": "McAlester Army Ammunition Plant has now issued an Amendment to its Request for Quote for Pnuematic Jolter (See posted solicitation for additional requirements.) FOB Destination - McAlester Army Ammunition Plant, McAlester, OK. This solicitation will be issued via the internet at https//www.fbo.gov and will now close 13 Aug 2018. Questions or offers should be e-mailed directly to susaneva.k.wade.civ@mail.mil. Any changes to the solicitation shall also be posted to this web site and it is the contractor's responsibility to check site daily for any posted changes. All contractors who provide goods/services to the DOD must have a current active registration at System for Award Management (SAM) - https://www.sam.gov.",
          "setAside": "Total Small Business",
          "type": "Combined Synopsis/Solicitation",
          "posted": "/Date(1533652362000)/",
          "closeDate": "/Date(1532923200000)/"
        },
        "agency": {
          "name": "Army Corps of Engineers",
          "imageFilename": "https://www.fbo.gov/utils/view?id=6bd159b079447f4207ba0206d3cc4ed0&inline_disposition=1",
          "acronymn": "USACE",
          "office": "Army Contracting Command",
          "location": "ACC - RI (W44W9M) McAlester Contracting Office",
          "gpKey": "{fef4c518-182f-46ee-9b6c-2f8a8322a1e0}",
          "selected": false
        }
      },
      {
        "opportunity": {
          "gpKey": "{09876}",
          "name": "Project Title Page 1",
          "naicsCode": "333999",
          "solicitationNumber": "SPRHA4-18-R-8001",
          "noticeType": "Solicitation",
          "synopsis": "McAlester Army Ammunition Plant has now issued an Amendment to its Request for Quote for Pnuematic Jolter (See posted solicitation for additional requirements.) FOB Destination - McAlester Army Ammunition Plant, McAlester, OK. This solicitation will be issued via the internet at https//www.fbo.gov and will now close 13 Aug 2018. Questions or offers should be e-mailed directly to susaneva.k.wade.civ@mail.mil. Any changes to the solicitation shall also be posted to this web site and it is the contractor's responsibility to check site daily for any posted changes. All contractors who provide goods/services to the DOD must have a current active registration at System for Award Management (SAM) - https://www.sam.gov.",
          "setAside": "Total Small Business",
          "type": "Combined Synopsis/Solicitation",
          "posted": "/Date(1533652362000)/",
          "closeDate": "/Date(1532923200000)/"
        },
        "agency": {
          "name": "Army Corps of Engineers",
          "imageFilename": "https://www.fbo.gov/utils/view?id=6bd159b079447f4207ba0206d3cc4ed0&inline_disposition=1",
          "acronymn": "USACE",
          "office": "Army Contracting Command",
          "location": "ACC - RI (W44W9M) McAlester Contracting Office",
          "gpKey": "{fef4c518-182f-46ee-9b6c-2f8a8322a1e0}",
          "selected": false
        }
      }
    ],
    "pageNumber": 1,
    "totalPages": 14,
    "totalResults": 98
  },
  "errors": []
}
